{
	"info": {
		"_postman_id": "8f0a9be7-cc9b-4cd6-af74-fd61c7fc8efe",
		"name": "Visualizer example - Table",
		"description": "This collection shows how you can render your API data as a HTML table.\n\nLook under the \"Tests\" tab of the request in this collection to get a sense of things.",
		"schema": "https://schema.getpostman.com/json/collection/v2.1.0/collection.json"
	},
	"item": [
		{
			"name": "Table view",
			"event": [
				{
					"listen": "test",
					"script": {
						"id": "a59fd1fa-1a2f-43f2-b14b-a6f156c5ee02",
						"exec": [
							"var template = `",
							"    <style type=\"text/css\">",
							"        .tftable {font-size:14px;color:#333333;width:100%;border-width: 1px;border-color: #87ceeb;border-collapse: collapse;}",
							"        .tftable th {font-size:18px;background-color:#87ceeb;border-width: 1px;padding: 8px;border-style: solid;border-color: #87ceeb;text-align:left;}",
							"        .tftable tr {background-color:#ffffff;}",
							"        .tftable td {font-size:14px;border-width: 1px;padding: 8px;border-style: solid;border-color: #87ceeb;}",
							"        .tftable tr:hover {background-color:#e0ffff;}",
							"    </style>",
							"    ",
							"    <table class=\"tftable\" border=\"1\">",
							"        <tr>",
							"            <th>Name</th>",
							"            <th>Email</th>",
							"        </tr>",
							"        ",
							"        {{#each response.data.contacts}}",
							"            <tr id=row_{{@key}} onClick=\"handleClick(this.id)\">",
							"                <td id={{@key}}>{{name}}</td>",
							"                <td>{{email}}</td>",
							"            </tr>",
							"        {{/each}}",
							"    </table>",
							"`;",
							"",
							"pm.visualizer.set(template, {",
							"    response: pm.response.json()",
							"});"
						],
						"type": "text/javascript"
					}
				}
			],
			"request": {
				"method": "POST",
				"header": [
					{
						"key": "Content-Type",
						"name": "Content-Type",
						"type": "text",
						"value": "application/json"
					}
				],
				"body": {
					"mode": "raw",
					"raw": "{\n\t\"contacts\": [\n\t\t{\n\t\t\t\"name\": \"{{$randomFullName}}\",\n\t\t\t\"email\": \"{{$randomEmail}}\"\n\t\t},\n\t\t{\n\t\t\t\"name\": \"{{$randomFullName}}\",\n\t\t\t\"email\": \"{{$randomEmail}}\"\n\t\t},\n\t\t{\n\t\t\t\"name\": \"{{$randomFullName}}\",\n\t\t\t\"email\": \"{{$randomEmail}}\"\n\t\t},\n\t\t{\n\t\t\t\"name\": \"{{$randomFullName}}\",\n\t\t\t\"email\": \"{{$randomEmail}}\"\n\t\t}\n\t\t]\n}\n\t\t"
				},
				"url": {
					"raw": "https://postman-echo.com/post",
					"protocol": "https",
					"host": [
						"postman-echo",
						"com"
					],
					"path": [
						"post"
					]
				},
				"description": "Gets randomly generated names and e-mails from postman-echo and visualizes the response body as a table."
			},
			"response": []
		}
	],
	"event": [
		{
			"listen": "prerequest",
			"script": {
				"id": "f645a01d-7a94-424c-b415-cc0c7e7b421e",
				"type": "text/javascript",
				"exec": [
					""
				]
			}
		},
		{
			"listen": "test",
			"script": {
				"id": "42cf3a99-8dc8-4802-8324-2f1166205e70",
				"type": "text/javascript",
				"exec": [
					""
				]
			}
		}
	],
	"protocolProfileBehavior": []
}